0, 1.5063371394217275
1, 1.4310597445145188
2, 1.8454120983443143
3, 1.3499703840724482
4, 1.3679829659772624
5, 1.6653145172141322
6, 1.3318902623813262
7, 1.3813521361682033
8, 1.4044805942402767
9, 1.6729700712457705
10, 1.592648929161605
11, 1.4156603498703306
12, 1.528695214610939
13, 1.8611864672587608
14, 1.9999275635580893
15, 1.833826402787765
16, 1.6850239475582283
17, 2.3222817793794412
18, 1.8406479605522759
19, 2.628735303341232
